{
  "project_info": {
    "project_number": "661108722018",
    "firebase_url": "https://fitbuddy-fbfac.firebaseio.com",
    "project_id": "fitbuddy-fbfac",
    "storage_bucket": "fitbuddy-fbfac.appspot.com"
  },
  "client": [
    {
      "client_info": {
        "mobilesdk_app_id": "1:661108722018:android:d0c39bc77702f638",
        "android_client_info": {
          "package_name": "com.fitbuddy.fitbuddy"
        }
      },
      "oauth_client": [
        {
          "client_id": "661108722018-n2gvcefet8n1a8mimbsq3755du7bdd2c.apps.googleusercontent.com",
          "client_type": 1,
          "android_info": {
            "package_name": "com.fitbuddy.fitbuddy",
            "certificate_hash": "7cba589a354a575359f11519e7ac21dde95cc710"
          }
        },
        {
          "client_id": "661108722018-m1c5bcj49frgtdc9vdtmbois8enph9c2.apps.googleusercontent.com",
          "client_type": 1,
          "android_info": {
            "package_name": "com.fitbuddy.fitbuddy",
            "certificate_hash": "edacedd02d0212b3d22512a070046a6c4dd748ff"
          }
        },
        {
          "client_id": "661108722018-c0gt95q2mdk8vtlphh7c8603vq90rb0u.apps.googleusercontent.com",
          "client_type": 3
        }
      ],
      "api_key": [
        {
          "current_key": "AIzaSyC5nYgnfaylLCL-aVF-DPrE-b-Ho0d9XNk"
        }
      ],
      "services": {
        "analytics_service": {
          "status": 1
        },
        "appinvite_service": {
          "status": 2,
          "other_platform_oauth_client": [
            {
              "client_id": "661108722018-c0gt95q2mdk8vtlphh7c8603vq90rb0u.apps.googleusercontent.com",
              "client_type": 3
            }
          ]
        },
        "ads_service": {
          "status": 2
        }
      }
    }
  ],
  "configuration_version": "1"
}